HW9
…
Splitting the data on a 75/25 split.

data_split<-initial_split(Model_data,strata=season,prop=0.75)
data_training<-training(data_split)
data_test<-testing(data_split)
data_fold<-vfold_cv(data_training,10)

print(data_training)

# A tibble: 273 × 12
   Date       season holiday    sum_rbc sum_rain sum_snow mean_temp mean_hum
   <date>     <fct>  <fct>        <dbl>    <dbl>    <dbl>     <dbl>    <dbl>
 1 2018-09-01 Autumn No Holiday   26010      0          0      25.5     61.2
 2 2018-09-02 Autumn No Holiday   26881      0          0      25.0     54.5
 3 2018-09-03 Autumn No Holiday   10802     34.5        0      23.6     82.2
 4 2018-09-04 Autumn No Holiday   29529      0          0      23.3     71.6
 5 2018-09-05 Autumn No Holiday   31114      0          0      23.8     61.8
 6 2018-09-06 Autumn No Holiday   27838      0          0      24.2     70.8
 7 2018-09-07 Autumn No Holiday   30381      1.5        0      22.2     56.9
 8 2018-09-08 Autumn No Holiday   29813      0          0      21.7     48.7
 9 2018-09-09 Autumn No Holiday   28354      0          0      22.0     49.5
10 2018-09-11 Autumn No Holiday   31694      0          0      21.6     48.0
# ℹ 263 more rows
# ℹ 4 more variables: mean_ws <dbl>, mean_vis <dbl>, mean_dpttemp <dbl>,
#   mean_solrad <dbl>

print(data_test)

# A tibble: 92 × 12
   Date       season holiday    sum_rbc sum_rain sum_snow mean_temp mean_hum
   <date>     <fct>  <fct>        <dbl>    <dbl>    <dbl>     <dbl>    <dbl>
 1 2017-12-06 Winter No Holiday    6669      1.3      8.6    0.0458     70.8
 2 2017-12-07 Winter No Holiday    8549      0       10.4    1.09       67.5
 3 2017-12-15 Winter No Holiday    7198      0        0     -3.28       50.5
 4 2017-12-19 Winter No Holiday    4334      0       55.6   -3.53       50.2
 5 2017-12-20 Winter No Holiday    4568      0.2     48.3   -4.29       65.5
 6 2017-12-22 Winter Holiday       7184      0        7.7    2.76       67.1
 7 2017-12-26 Winter No Holiday    5605      0        0     -3.27       43.6
 8 2018-01-04 Winter No Holiday    6453      0        0     -4.8        44.1
 9 2018-01-09 Winter No Holiday    5500      0       10.8   -3.87       58.6
10 2018-01-15 Winter No Holiday    6334      0.2      0      4.71       63.9
# ℹ 82 more rows
# ℹ 4 more variables: mean_ws <dbl>, mean_vis <dbl>, mean_dpttemp <dbl>,
#   mean_solrad <dbl>
…
LASSO_grid[1, ".metrics"][[1]]

[[1]]
# A tibble: 400 × 5
    penalty .metric .estimator .estimate .config               
      <dbl> <chr>   <chr>          <dbl> <chr>                 
 1 1   e-10 rmse    standard       6062. Preprocessor1_Model001
 2 1.12e-10 rmse    standard       6062. Preprocessor1_Model002
 3 1.26e-10 rmse    standard       6062. Preprocessor1_Model003
 4 1.41e-10 rmse    standard       6062. Preprocessor1_Model004
 5 1.59e-10 rmse    standard       6062. Preprocessor1_Model005
 6 1.78e-10 rmse    standard       6062. Preprocessor1_Model006
 7 2.00e-10 rmse    standard       6062. Preprocessor1_Model007
 8 2.25e-10 rmse    standard       6062. Preprocessor1_Model008
 9 2.52e-10 rmse    standard       6062. Preprocessor1_Model009
10 2.83e-10 rmse    standard       6062. Preprocessor1_Model010
# ℹ 390 more rows

LASSO_grid |>
  collect_metrics() |>
  filter(.metric == "rmse")

# A tibble: 200 × 7
    penalty .metric .estimator  mean     n std_err .config               
      <dbl> <chr>   <chr>      <dbl> <int>   <dbl> <chr>                 
 1 1   e-10 rmse    standard   5475.    10    621. Preprocessor1_Model001
 2 1.12e-10 rmse    standard   5475.    10    621. Preprocessor1_Model002
 3 1.26e-10 rmse    standard   5475.    10    621. Preprocessor1_Model003
 4 1.41e-10 rmse    standard   5475.    10    621. Preprocessor1_Model004
 5 1.59e-10 rmse    standard   5475.    10    621. Preprocessor1_Model005
 6 1.78e-10 rmse    standard   5475.    10    621. Preprocessor1_Model006
 7 2.00e-10 rmse    standard   5475.    10    621. Preprocessor1_Model007
 8 2.25e-10 rmse    standard   5475.    10    621. Preprocessor1_Model008
 9 2.52e-10 rmse    standard   5475.    10    621. Preprocessor1_Model009
10 2.83e-10 rmse    standard   5475.    10    621. Preprocessor1_Model010
# ℹ 190 more rows
…
tree_fits |>
  collect_metrics()

# A tibble: 100 × 8
   cost_complexity tree_depth .metric .estimator     mean     n  std_err .config
             <dbl>      <int> <chr>   <chr>         <dbl> <int>    <dbl> <chr>  
 1    0.0000000001          1 rmse    standard   7743.       10 528.     Prepro…
 2    0.0000000001          1 rsq     standard      0.422    10   0.0642 Prepro…
 3    0.000000001           1 rmse    standard   7743.       10 528.     Prepro…
 4    0.000000001           1 rsq     standard      0.422    10   0.0642 Prepro…
 5    0.00000001            1 rmse    standard   7743.       10 528.     Prepro…
 6    0.00000001            1 rsq     standard      0.422    10   0.0642 Prepro…
 7    0.0000001             1 rmse    standard   7743.       10 528.     Prepro…
 8    0.0000001             1 rsq     standard      0.422    10   0.0642 Prepro…
 9    0.000001              1 rmse    standard   7743.       10 528.     Prepro…
10    0.000001              1 rsq     standard      0.422    10   0.0642 Prepro…
# ℹ 90 more rows
…
tree_fits |>
  collect_metrics() |>
  filter(.metric == "rmse") |>
  arrange(mean)

# A tibble: 50 × 8
   cost_complexity tree_depth .metric .estimator  mean     n std_err .config    
             <dbl>      <int> <chr>   <chr>      <dbl> <int>   <dbl> <chr>      
 1    0.001                 8 rmse    standard   5800.    10    635. Preprocess…
 2    0.0000000001          8 rmse    standard   5808.    10    636. Preprocess…
 3    0.000000001           8 rmse    standard   5808.    10    636. Preprocess…
 4    0.00000001            8 rmse    standard   5808.    10    636. Preprocess…
 5    0.0000001             8 rmse    standard   5808.    10    636. Preprocess…
 6    0.000001              8 rmse    standard   5808.    10    636. Preprocess…
 7    0.00001               8 rmse    standard   5808.    10    636. Preprocess…
 8    0.0001                8 rmse    standard   5808.    10    636. Preprocess…
 9    0.001                11 rmse    standard   5813.    10    640. Preprocess…
10    0.001                15 rmse    standard   5813.    10    640. Preprocess…
# ℹ 40 more rows
…
